[{"line":1,"elements":[{"line":3,"name":"Get list of all user and verify total user available is userCount[12]","description":"","id":"get-list-of-all-user-and-verify-total-user-available-is-usercount[12]","type":"scenario","keyword":"Scenario","steps":[{"name":"url 'https:\/\/reqres.in\/api\/users?page=2'","result":{"duration":2186700,"status":"passed"},"match":{"location":"karate","arguments":[]},"keyword":"Given","line":4,"doc_string":{"content_type":"","value":"12:00:18.762 skipping bootstrap configuration: could not find or read file: classpath:karate-config.js","line":4}},{"name":"method get","result":{"duration":1269292500,"status":"passed"},"match":{"location":"karate","arguments":[]},"keyword":"When","line":5,"doc_string":{"content_type":"","value":"12:00:19.090 request:\n1 > GET https:\/\/reqres.in\/api\/users?page=2\n1 > Accept-Encoding: gzip,deflate\n1 > Connection: Keep-Alive\n1 > Host: reqres.in\n1 > User-Agent: Apache-HttpClient\/4.5.12 (Java\/14.0.2)\n\n12:00:20.010 response time in milliseconds: 914.04\n1 < 200\n1 < Access-Control-Allow-Origin: *\n1 < Age: 2612\n1 < CF-Cache-Status: HIT\n1 < CF-RAY: 5c8b80e09b2a0052-LHR\n1 < Cache-Control: max-age=14400\n1 < Connection: keep-alive\n1 < Content-Type: application\/json; charset=utf-8\n1 < Date: Wed, 26 Aug 2020 06:30:18 GMT\n1 < Etag: W\/\"4dd-IPv5LdOOb6s5S9E3i59wBCJ1k\/0\"\n1 < Expect-CT: max-age=604800, report-uri=\"https:\/\/report-uri.cloudflare.com\/cdn-cgi\/beacon\/expect-ct\"\n1 < Server: cloudflare\n1 < Set-Cookie: __cfduid=d3ff75fcf508462989d035a7a3da730d81598423418; expires=Fri, 25-Sep-20 06:30:18 GMT; path=\/; domain=.reqres.in; HttpOnly; SameSite=Lax; Secure\n1 < Transfer-Encoding: chunked\n1 < Vary: Accept-Encoding\n1 < Via: 1.1 vegur\n1 < X-Powered-By: Express\n1 < cf-request-id: 04cb0ee060000000523517f200000001\n{\"page\":2,\"per_page\":6,\"total\":12,\"total_pages\":2,\"data\":[{\"id\":7,\"email\":\"michael.lawson@reqres.in\",\"first_name\":\"Michael\",\"last_name\":\"Lawson\",\"avatar\":\"https:\/\/s3.amazonaws.com\/uifaces\/faces\/twitter\/follettkyle\/128.jpg\"},{\"id\":8,\"email\":\"lindsay.ferguson@reqres.in\",\"first_name\":\"Lindsay\",\"last_name\":\"Ferguson\",\"avatar\":\"https:\/\/s3.amazonaws.com\/uifaces\/faces\/twitter\/araa3185\/128.jpg\"},{\"id\":9,\"email\":\"tobias.funke@reqres.in\",\"first_name\":\"Tobias\",\"last_name\":\"Funke\",\"avatar\":\"https:\/\/s3.amazonaws.com\/uifaces\/faces\/twitter\/vivekprvr\/128.jpg\"},{\"id\":10,\"email\":\"byron.fields@reqres.in\",\"first_name\":\"Byron\",\"last_name\":\"Fields\",\"avatar\":\"https:\/\/s3.amazonaws.com\/uifaces\/faces\/twitter\/russoedu\/128.jpg\"},{\"id\":11,\"email\":\"george.edwards@reqres.in\",\"first_name\":\"George\",\"last_name\":\"Edwards\",\"avatar\":\"https:\/\/s3.amazonaws.com\/uifaces\/faces\/twitter\/mrmoiree\/128.jpg\"},{\"id\":12,\"email\":\"rachel.howell@reqres.in\",\"first_name\":\"Rachel\",\"last_name\":\"Howell\",\"avatar\":\"https:\/\/s3.amazonaws.com\/uifaces\/faces\/twitter\/hebertialmeida\/128.jpg\"}],\"ad\":{\"company\":\"StatusCode Weekly\",\"url\":\"http:\/\/statuscode.org\/\",\"text\":\"A weekly newsletter focusing on software development, infrastructure, the server, performance, and the stack end of things.\"}}","line":5}},{"name":"match response.total == 12","result":{"duration":17777700,"status":"passed"},"match":{"location":"karate","arguments":[]},"keyword":"Then","line":6},{"name":"print 'Total users Count : ', response.total","result":{"duration":11165700,"status":"passed"},"match":{"location":"karate","arguments":[]},"keyword":"And","line":7,"doc_string":{"content_type":"","value":"12:00:20.075 [print] Total users Count :  12","line":7}}]},{"line":9,"name":"Update details of any user on the basis of his\/her id","description":"","id":"update-details-of-any-user-on-the-basis-of-his\/her-id","type":"scenario","keyword":"Scenario","steps":[{"name":"url 'https:\/\/reqres.in\/api\/users\/2'","result":{"duration":1657000,"status":"passed"},"match":{"location":"karate","arguments":[]},"keyword":"Given","line":10,"doc_string":{"content_type":"","value":"12:00:20.081 skipping bootstrap configuration: could not find or read file: classpath:karate-config.js","line":10}},{"name":"request {\"name\": \"Archana\",\"job\": \"Mahajan\"}","result":{"duration":258100,"status":"passed"},"match":{"location":"karate","arguments":[]},"keyword":"When","line":11},{"name":"method put","result":{"duration":663221400,"status":"passed"},"match":{"location":"karate","arguments":[]},"keyword":"And","line":12,"doc_string":{"content_type":"","value":"12:00:20.088 request:\n1 > PUT https:\/\/reqres.in\/api\/users\/2\n1 > Accept-Encoding: gzip,deflate\n1 > Connection: Keep-Alive\n1 > Content-Length: 34\n1 > Content-Type: application\/json; charset=UTF-8\n1 > Host: reqres.in\n1 > User-Agent: Apache-HttpClient\/4.5.12 (Java\/14.0.2)\n{\"name\":\"Archana\",\"job\":\"Mahajan\"}\n\n12:00:20.746 response time in milliseconds: 658.28\n1 < 200\n1 < Access-Control-Allow-Origin: *\n1 < CF-Cache-Status: DYNAMIC\n1 < CF-RAY: 5c8b80e53925063d-LHR\n1 < Connection: keep-alive\n1 < Content-Type: application\/json; charset=utf-8\n1 < Date: Wed, 26 Aug 2020 06:30:19 GMT\n1 < Etag: W\/\"49-loT+p7\/2vdno69obEqZKU8qQUDk\"\n1 < Expect-CT: max-age=604800, report-uri=\"https:\/\/report-uri.cloudflare.com\/cdn-cgi\/beacon\/expect-ct\"\n1 < Server: cloudflare\n1 < Set-Cookie: __cfduid=d83bb2c67e5a0ed141ae59a711ce6c3951598423419; expires=Fri, 25-Sep-20 06:30:19 GMT; path=\/; domain=.reqres.in; HttpOnly; SameSite=Lax; Secure\n1 < Transfer-Encoding: chunked\n1 < Vary: Accept-Encoding\n1 < Via: 1.1 vegur\n1 < X-Powered-By: Express\n1 < cf-request-id: 04cb0ee33e0000063d8e267200000001\n{\"name\":\"Archana\",\"job\":\"Mahajan\",\"updatedAt\":\"2020-08-26T06:30:19.739Z\"}","line":12}},{"name":"print 'Response : ', response","result":{"duration":1794600,"status":"passed"},"match":{"location":"karate","arguments":[]},"keyword":"Then","line":13,"doc_string":{"content_type":"","value":"12:00:20.748 [print] Response :  {\n  \"name\": \"Archana\",\n  \"job\": \"Mahajan\",\n  \"updatedAt\": \"2020-08-26T06:30:19.739Z\"\n}","line":13}}]},{"line":15,"name":"Create new user and verify the details of created user","description":"","id":"create-new-user-and-verify-the-details-of-created-user","type":"scenario","keyword":"Scenario","steps":[{"name":"url 'https:\/\/reqres.in\/api\/users'","result":{"duration":1402600,"status":"passed"},"match":{"location":"karate","arguments":[]},"keyword":"Given","line":16,"doc_string":{"content_type":"","value":"12:00:20.754 skipping bootstrap configuration: could not find or read file: classpath:karate-config.js","line":16}},{"name":"request {\"name\": \"Archana\",\"job\": \"Mahajan\"}","result":{"duration":151100,"status":"passed"},"match":{"location":"karate","arguments":[]},"keyword":"When","line":17},{"name":"method post","result":{"duration":642003600,"status":"passed"},"match":{"location":"karate","arguments":[]},"keyword":"And","line":18,"doc_string":{"content_type":"","value":"12:00:20.757 request:\n1 > POST https:\/\/reqres.in\/api\/users\n1 > Accept-Encoding: gzip,deflate\n1 > Connection: Keep-Alive\n1 > Content-Length: 34\n1 > Content-Type: application\/json; charset=UTF-8\n1 > Host: reqres.in\n1 > User-Agent: Apache-HttpClient\/4.5.12 (Java\/14.0.2)\n{\"name\":\"Archana\",\"job\":\"Mahajan\"}\n\n12:00:21.397 response time in milliseconds: 639.39\n1 < 201\n1 < Access-Control-Allow-Origin: *\n1 < CF-Cache-Status: DYNAMIC\n1 < CF-RAY: 5c8b80e94f9bdc33-LHR\n1 < Connection: keep-alive\n1 < Content-Length: 84\n1 < Content-Type: application\/json; charset=utf-8\n1 < Date: Wed, 26 Aug 2020 06:30:20 GMT\n1 < Etag: W\/\"54-cXEKEbA0Um8v51P3lYjqze4Lym0\"\n1 < Expect-CT: max-age=604800, report-uri=\"https:\/\/report-uri.cloudflare.com\/cdn-cgi\/beacon\/expect-ct\"\n1 < Server: cloudflare\n1 < Set-Cookie: __cfduid=deec40836ef8008f2244cfc829d43d9e61598423420; expires=Fri, 25-Sep-20 06:30:20 GMT; path=\/; domain=.reqres.in; HttpOnly; SameSite=Lax; Secure\n1 < Via: 1.1 vegur\n1 < X-Powered-By: Express\n1 < cf-request-id: 04cb0ee5ce0000dc33d8060200000001\n{\"name\":\"Archana\",\"job\":\"Mahajan\",\"id\":\"793\",\"createdAt\":\"2020-08-26T06:30:20.382Z\"}","line":18}},{"name":"print 'Response : ', response","result":{"duration":751300,"status":"passed"},"match":{"location":"karate","arguments":[]},"keyword":"And","line":19,"doc_string":{"content_type":"","value":"12:00:21.398 [print] Response :  {\n  \"createdAt\": \"2020-08-26T06:30:20.382Z\",\n  \"name\": \"Archana\",\n  \"id\": \"793\",\n  \"job\": \"Mahajan\"\n}","line":19}}]},{"line":21,"name":"Delete the user and verify that status code is correct and user has been deleted","description":"","id":"delete-the-user-and-verify-that-status-code-is-correct-and-user-has-been-deleted","type":"scenario","keyword":"Scenario","steps":[{"name":"url 'https:\/\/reqres.in\/api\/users\/2'","result":{"duration":113900,"status":"passed"},"match":{"location":"karate","arguments":[]},"keyword":"Given","line":22,"doc_string":{"content_type":"","value":"12:00:21.412 skipping bootstrap configuration: could not find or read file: classpath:karate-config.js","line":22}},{"name":"method delete","result":{"duration":656474200,"status":"passed"},"match":{"location":"karate","arguments":[]},"keyword":"When","line":23,"doc_string":{"content_type":"","value":"12:00:21.414 request:\n1 > DELETE https:\/\/reqres.in\/api\/users\/2\n1 > Accept-Encoding: gzip,deflate\n1 > Connection: Keep-Alive\n1 > Host: reqres.in\n1 > User-Agent: Apache-HttpClient\/4.5.12 (Java\/14.0.2)\n\n12:00:22.069 response time in milliseconds: 654.40\n1 < 204\n1 < Access-Control-Allow-Origin: *\n1 < CF-Cache-Status: DYNAMIC\n1 < CF-RAY: 5c8b80ed7ec1dbd7-LHR\n1 < Connection: keep-alive\n1 < Content-Length: 0\n1 < Date: Wed, 26 Aug 2020 06:30:21 GMT\n1 < Etag: W\/\"2-vyGp6PvFo4RvsFtPoIWeCReyIC8\"\n1 < Expect-CT: max-age=604800, report-uri=\"https:\/\/report-uri.cloudflare.com\/cdn-cgi\/beacon\/expect-ct\"\n1 < Server: cloudflare\n1 < Set-Cookie: __cfduid=dd7a178b1511641da6b09b03c312ea5a11598423421; expires=Fri, 25-Sep-20 06:30:21 GMT; path=\/; domain=.reqres.in; HttpOnly; SameSite=Lax; Secure\n1 < Via: 1.1 vegur\n1 < X-Powered-By: Express\n1 < cf-request-id: 04cb0ee86b0000dbd77eaeb200000001","line":23}},{"name":"status 204","result":{"duration":40500,"status":"passed"},"match":{"location":"karate","arguments":[]},"keyword":"Then","line":24}]},{"line":27,"name":"Get details of users whose first_name=Michael","description":"","id":"get-details-of-users-whose-first-name=michael","type":"scenario","keyword":"Scenario","steps":[{"name":"url 'https:\/\/reqres.in\/api\/users?page=2'","result":{"duration":257400,"status":"passed"},"match":{"location":"karate","arguments":[]},"keyword":"Given","line":28,"doc_string":{"content_type":"","value":"12:00:22.082 skipping bootstrap configuration: could not find or read file: classpath:karate-config.js","line":28}},{"name":"method get","result":{"duration":647095500,"status":"passed"},"match":{"location":"karate","arguments":[]},"keyword":"And","line":29,"doc_string":{"content_type":"","value":"12:00:22.084 request:\n1 > GET https:\/\/reqres.in\/api\/users?page=2\n1 > Accept-Encoding: gzip,deflate\n1 > Connection: Keep-Alive\n1 > Host: reqres.in\n1 > User-Agent: Apache-HttpClient\/4.5.12 (Java\/14.0.2)\n\n12:00:22.730 response time in milliseconds: 641.60\n1 < 200\n1 < Access-Control-Allow-Origin: *\n1 < Age: 2615\n1 < CF-Cache-Status: HIT\n1 < CF-RAY: 5c8b80f1c9d70722-LHR\n1 < Cache-Control: max-age=14400\n1 < Connection: keep-alive\n1 < Content-Type: application\/json; charset=utf-8\n1 < Date: Wed, 26 Aug 2020 06:30:21 GMT\n1 < Etag: W\/\"4dd-IPv5LdOOb6s5S9E3i59wBCJ1k\/0\"\n1 < Expect-CT: max-age=604800, report-uri=\"https:\/\/report-uri.cloudflare.com\/cdn-cgi\/beacon\/expect-ct\"\n1 < Server: cloudflare\n1 < Set-Cookie: __cfduid=dcb636adabc3f84e5fbd1909003e84d101598423421; expires=Fri, 25-Sep-20 06:30:21 GMT; path=\/; domain=.reqres.in; HttpOnly; SameSite=Lax; Secure\n1 < Transfer-Encoding: chunked\n1 < Vary: Accept-Encoding\n1 < Via: 1.1 vegur\n1 < X-Powered-By: Express\n1 < cf-request-id: 04cb0eeb1b000007229fb37200000001\n{\"page\":2,\"per_page\":6,\"total\":12,\"total_pages\":2,\"data\":[{\"id\":7,\"email\":\"michael.lawson@reqres.in\",\"first_name\":\"Michael\",\"last_name\":\"Lawson\",\"avatar\":\"https:\/\/s3.amazonaws.com\/uifaces\/faces\/twitter\/follettkyle\/128.jpg\"},{\"id\":8,\"email\":\"lindsay.ferguson@reqres.in\",\"first_name\":\"Lindsay\",\"last_name\":\"Ferguson\",\"avatar\":\"https:\/\/s3.amazonaws.com\/uifaces\/faces\/twitter\/araa3185\/128.jpg\"},{\"id\":9,\"email\":\"tobias.funke@reqres.in\",\"first_name\":\"Tobias\",\"last_name\":\"Funke\",\"avatar\":\"https:\/\/s3.amazonaws.com\/uifaces\/faces\/twitter\/vivekprvr\/128.jpg\"},{\"id\":10,\"email\":\"byron.fields@reqres.in\",\"first_name\":\"Byron\",\"last_name\":\"Fields\",\"avatar\":\"https:\/\/s3.amazonaws.com\/uifaces\/faces\/twitter\/russoedu\/128.jpg\"},{\"id\":11,\"email\":\"george.edwards@reqres.in\",\"first_name\":\"George\",\"last_name\":\"Edwards\",\"avatar\":\"https:\/\/s3.amazonaws.com\/uifaces\/faces\/twitter\/mrmoiree\/128.jpg\"},{\"id\":12,\"email\":\"rachel.howell@reqres.in\",\"first_name\":\"Rachel\",\"last_name\":\"Howell\",\"avatar\":\"https:\/\/s3.amazonaws.com\/uifaces\/faces\/twitter\/hebertialmeida\/128.jpg\"}],\"ad\":{\"company\":\"StatusCode Weekly\",\"url\":\"http:\/\/statuscode.org\/\",\"text\":\"A weekly newsletter focusing on software development, infrastructure, the server, performance, and the stack end of things.\"}}","line":29}},{"name":"def data = response.data","result":{"duration":2993300,"status":"passed"},"match":{"location":"karate","arguments":[]},"keyword":"*","line":30},{"name":"def myfunc =","result":{"duration":15950800,"status":"passed"},"match":{"location":"karate","arguments":[]},"keyword":"*","line":31,"doc_string":{"content_type":"","value":"function(arg){ \n\tfor(i=0;i<arg.length;i++)\n\t{\n\t\tif((arg[i].first_name)==\"Michael\")\n\t\t{\t\n\t\t\treturn (arg[i]) \n\t\t}\n\t}\n}","line":31}},{"name":"def returnedData = call myfunc data","result":{"duration":19955900,"status":"passed"},"match":{"location":"karate","arguments":[]},"keyword":"*","line":43},{"name":"print 'Details Of Michael : ', returnedData","result":{"duration":1696600,"status":"passed"},"match":{"location":"karate","arguments":[]},"keyword":"And","line":44,"doc_string":{"content_type":"","value":"12:00:22.771 [print] Details Of Michael :  {\n  \"last_name\": \"Lawson\",\n  \"id\": 7,\n  \"avatar\": \"https:\/\/s3.amazonaws.com\/uifaces\/faces\/twitter\/follettkyle\/128.jpg\",\n  \"first_name\": \"Michael\",\n  \"email\": \"michael.lawson@reqres.in\"\n}","line":44}}]}],"name":"src\/test\/resources\/features\/karatedemo.feature","description":"Testing website","id":"testing-website","keyword":"Feature","uri":"src\/test\/resources\/features\/karatedemo.feature"}]